<!DOCTYPE svg PUBLIC "-//W3C//DTD SVG 1.1//EN" "http://www.w3.org/Graphics/SVG/1.1/DTD/svg11.dtd">
<!-- Uploaded to: SVG Repo, www.svgrepo.com, Transformed by: SVG Repo Mixer Tools -->
<svg width="800px" height="800px" viewBox="0 0 24 24" fill="none" xmlns="http://www.w3.org/2000/svg">
<g id="SVGRepo_bgCarrier" stroke-width="0"/>
<g id="SVGRepo_tracerCarrier" stroke-linecap="round" stroke-linejoin="round"/>
<g id="SVGRepo_iconCarrier"> <g id="Arrow / Arrow_Left_MD"> <path id="Vector" d="M19 12H5M5 12L11 18M5 12L11 6" stroke="#fff" stroke-width="2" stroke-linecap="round" stroke-linejoin="round" style="--darkreader-inline-stroke: #e8e6e3;" data-darkreader-inline-stroke=""/> </g> </g>
</svg>