{
  "db_name": "PostgreSQL",
  "query": "SELECT identifier, name, author, duration, cover_art_url FROM audio_metadata where identifier = $1",
  "describe": {
    "columns": [
      {
        "ordinal": 0,
        "name": "identifier",
        "type_info": "Varchar"
      },
      {
        "ordinal": 1,
        "name": "name",
        "type_info": "Varchar"
      },
      {
        "ordinal": 2,
        "name": "author",
        "type_info": "Varchar"
      },
      {
        "ordinal": 3,
        "name": "duration",
        "type_info": "Int8"
      },
      {
        "ordinal": 4,
        "name": "cover_art_url",
        "type_info": "Varchar"
      }
    ],
    "parameters": {
      "Left": [
        "Text"
      ]
    },
    "nullable": [
      false,
      true,
      true,
      true,
      true
    ]
  },
  "hash": "18c57b59223311deae3b740004bca6822c83d88dd69b7e2e810bf0fa519c54cb"
}
