{
  "db_name": "PostgreSQL",
  "query": "INSERT INTO audio_playlist\n        (identifier, name, author, cover_art_url) \n        VALUES ($1, $2, $3, $4)",
  "describe": {
    "columns": [],
    "parameters": {
      "Left": [
        "Varchar",
        "Varchar",
        "Varchar",
        "Varchar"
      ]
    },
    "nullable": []
  },
  "hash": "57ed389584b08fceb563bb8c368977e96d0f003c983593c9a89dcfe80aaf3fef"
}
