{
  "db_name": "PostgreSQL",
  "query": "SELECT audio.identifier, audio.name, audio.author, audio.duration, audio.cover_art_url\n             FROM audio_metadata audio\n                 INNER JOIN audio_playlist_item items \n                 ON audio.identifier = items.item_identifier\n             WHERE items.playlist_identifier = $1\n             ORDER BY position\n             LIMIT $2 OFFSET $3",
  "describe": {
    "columns": [
      {
        "ordinal": 0,
        "name": "identifier",
        "type_info": "Varchar"
      },
      {
        "ordinal": 1,
        "name": "name",
        "type_info": "Varchar"
      },
      {
        "ordinal": 2,
        "name": "author",
        "type_info": "Varchar"
      },
      {
        "ordinal": 3,
        "name": "duration",
        "type_info": "Int8"
      },
      {
        "ordinal": 4,
        "name": "cover_art_url",
        "type_info": "Varchar"
      }
    ],
    "parameters": {
      "Left": [
        "Text",
        "Int8",
        "Int8"
      ]
    },
    "nullable": [
      false,
      true,
      true,
      true,
      true
    ]
  },
  "hash": "fe11683be23c08bc9517e814bba51f204e2f17caa1b07e9c2c781b1b6d53abc3"
}
