{
  "db_name": "PostgreSQL",
  "query": "DELETE FROM audio_metadata",
  "describe": {
    "columns": [],
    "parameters": {
      "Left": []
    },
    "nullable": []
  },
  "hash": "aee9bd6c12bded66f062b57cdaec92b597b29c6550fac83cbf810a9cfda34b2b"
}
